{
    "page": 1,
    "per_page": 8,
    "photos": [
        {
            "id": 996329,
            "width": 6000,
            "height": 4000,
            "url": "https://www.pexels.com/photo/assorted-clothes-996329/",
            "photographer": "Kai Pilger",
            "photographer_url": "https://www.pexels.com/@kaip",
            "photographer_id": 65982,
            "avg_color": "#987349",
            "src": {
                "original": "https://images.pexels.com/photos/996329/pexels-photo-996329.jpeg",
                "large2x": "https://images.pexels.com/photos/996329/pexels-photo-996329.jpeg?auto=compress&cs=tinysrgb&dpr=2&h=650&w=940",
                "large": "https://images.pexels.com/photos/996329/pexels-photo-996329.jpeg?auto=compress&cs=tinysrgb&h=650&w=940",
                "medium": "https://images.pexels.com/photos/996329/pexels-photo-996329.jpeg?auto=compress&cs=tinysrgb&h=350",
                "small": "https://images.pexels.com/photos/996329/pexels-photo-996329.jpeg?auto=compress&cs=tinysrgb&h=130",
                "portrait": "https://images.pexels.com/photos/996329/pexels-photo-996329.jpeg?auto=compress&cs=tinysrgb&fit=crop&h=1200&w=800",
                "landscape": "https://images.pexels.com/photos/996329/pexels-photo-996329.jpeg?auto=compress&cs=tinysrgb&fit=crop&h=627&w=1200",
                "tiny": "https://images.pexels.com/photos/996329/pexels-photo-996329.jpeg?auto=compress&cs=tinysrgb&dpr=1&fit=crop&h=200&w=280"
            },
            "liked": false,
            "alt": "Assorted Clothes"
        },
        {
            "id": 581087,
            "width": 6000,
            "height": 3376,
            "url": "https://www.pexels.com/photo/folded-assorted-color-shirts-581087/",
            "photographer": "Francesco Paggiaro",
            "photographer_url": "https://www.pexels.com/@paggiarofrancesco",
            "photographer_id": 144335,
            "avg_color": "#747475",
            "src": {
                "original": "https://images.pexels.com/photos/581087/pexels-photo-581087.jpeg",
                "large2x": "https://images.pexels.com/photos/581087/pexels-photo-581087.jpeg?auto=compress&cs=tinysrgb&dpr=2&h=650&w=940",
                "large": "https://images.pexels.com/photos/581087/pexels-photo-581087.jpeg?auto=compress&cs=tinysrgb&h=650&w=940",
                "medium": "https://images.pexels.com/photos/581087/pexels-photo-581087.jpeg?auto=compress&cs=tinysrgb&h=350",
                "small": "https://images.pexels.com/photos/581087/pexels-photo-581087.jpeg?auto=compress&cs=tinysrgb&h=130",
                "portrait": "https://images.pexels.com/photos/581087/pexels-photo-581087.jpeg?auto=compress&cs=tinysrgb&fit=crop&h=1200&w=800",
                "landscape": "https://images.pexels.com/photos/581087/pexels-photo-581087.jpeg?auto=compress&cs=tinysrgb&fit=crop&h=627&w=1200",
                "tiny": "https://images.pexels.com/photos/581087/pexels-photo-581087.jpeg?auto=compress&cs=tinysrgb&dpr=1&fit=crop&h=200&w=280"
            },
            "liked": false,
            "alt": "Folded Assorted-color Shirts"
        },
        {
            "id": 581339,
            "width": 5152,
            "height": 2305,
            "url": "https://www.pexels.com/photo/assorted-tops-581339/",
            "photographer": "Aden Ardenrich",
            "photographer_url": "https://www.pexels.com/@aden-ardenrich-181745",
            "photographer_id": 181745,
            "avg_color": "#6D6C69",
            "src": {
                "original": "https://images.pexels.com/photos/581339/pexels-photo-581339.jpeg",
                "large2x": "https://images.pexels.com/photos/581339/pexels-photo-581339.jpeg?auto=compress&cs=tinysrgb&dpr=2&h=650&w=940",
                "large": "https://images.pexels.com/photos/581339/pexels-photo-581339.jpeg?auto=compress&cs=tinysrgb&h=650&w=940",
                "medium": "https://images.pexels.com/photos/581339/pexels-photo-581339.jpeg?auto=compress&cs=tinysrgb&h=350",
                "small": "https://images.pexels.com/photos/581339/pexels-photo-581339.jpeg?auto=compress&cs=tinysrgb&h=130",
                "portrait": "https://images.pexels.com/photos/581339/pexels-photo-581339.jpeg?auto=compress&cs=tinysrgb&fit=crop&h=1200&w=800",
                "landscape": "https://images.pexels.com/photos/581339/pexels-photo-581339.jpeg?auto=compress&cs=tinysrgb&fit=crop&h=627&w=1200",
                "tiny": "https://images.pexels.com/photos/581339/pexels-photo-581339.jpeg?auto=compress&cs=tinysrgb&dpr=1&fit=crop&h=200&w=280"
            },
            "liked": false,
            "alt": "Assorted Tops"
        },
        {
            "id": 2294342,
            "width": 5616,
            "height": 3744,
            "url": "https://www.pexels.com/photo/assorted-t-shirts-2294342/",
            "photographer": "Francesco Paggiaro",
            "photographer_url": "https://www.pexels.com/@paggiarofrancesco",
            "photographer_id": 144335,
            "avg_color": "#63554B",
            "src": {
                "original": "https://images.pexels.com/photos/2294342/pexels-photo-2294342.jpeg",
                "large2x": "https://images.pexels.com/photos/2294342/pexels-photo-2294342.jpeg?auto=compress&cs=tinysrgb&dpr=2&h=650&w=940",
                "large": "https://images.pexels.com/photos/2294342/pexels-photo-2294342.jpeg?auto=compress&cs=tinysrgb&h=650&w=940",
                "medium": "https://images.pexels.com/photos/2294342/pexels-photo-2294342.jpeg?auto=compress&cs=tinysrgb&h=350",
                "small": "https://images.pexels.com/photos/2294342/pexels-photo-2294342.jpeg?auto=compress&cs=tinysrgb&h=130",
                "portrait": "https://images.pexels.com/photos/2294342/pexels-photo-2294342.jpeg?auto=compress&cs=tinysrgb&fit=crop&h=1200&w=800",
                "landscape": "https://images.pexels.com/photos/2294342/pexels-photo-2294342.jpeg?auto=compress&cs=tinysrgb&fit=crop&h=627&w=1200",
                "tiny": "https://images.pexels.com/photos/2294342/pexels-photo-2294342.jpeg?auto=compress&cs=tinysrgb&dpr=1&fit=crop&h=200&w=280"
            },
            "liked": false,
            "alt": "Assorted T-shirts"
        },
        {
            "id": 428338,
            "width": 3008,
            "height": 2008,
            "url": "https://www.pexels.com/photo/woman-wearing-gray-shirt-holding-head-428338/",
            "photographer": "Spencer Selover",
            "photographer_url": "https://www.pexels.com/@spencer-selover-142259",
            "photographer_id": 142259,
            "avg_color": "#E0DDDC",
            "src": {
                "original": "https://images.pexels.com/photos/428338/pexels-photo-428338.jpeg",
                "large2x": "https://images.pexels.com/photos/428338/pexels-photo-428338.jpeg?auto=compress&cs=tinysrgb&dpr=2&h=650&w=940",
                "large": "https://images.pexels.com/photos/428338/pexels-photo-428338.jpeg?auto=compress&cs=tinysrgb&h=650&w=940",
                "medium": "https://images.pexels.com/photos/428338/pexels-photo-428338.jpeg?auto=compress&cs=tinysrgb&h=350",
                "small": "https://images.pexels.com/photos/428338/pexels-photo-428338.jpeg?auto=compress&cs=tinysrgb&h=130",
                "portrait": "https://images.pexels.com/photos/428338/pexels-photo-428338.jpeg?auto=compress&cs=tinysrgb&fit=crop&h=1200&w=800",
                "landscape": "https://images.pexels.com/photos/428338/pexels-photo-428338.jpeg?auto=compress&cs=tinysrgb&fit=crop&h=627&w=1200",
                "tiny": "https://images.pexels.com/photos/428338/pexels-photo-428338.jpeg?auto=compress&cs=tinysrgb&dpr=1&fit=crop&h=200&w=280"
            },
            "liked": false,
            "alt": "Woman Wearing Gray Shirt Holding Head"
        },
        {
            "id": 428340,
            "width": 3008,
            "height": 2008,
            "url": "https://www.pexels.com/photo/men-s-white-shirt-428340/",
            "photographer": "Spencer Selover",
            "photographer_url": "https://www.pexels.com/@spencer-selover-142259",
            "photographer_id": 142259,
            "avg_color": "#403F42",
            "src": {
                "original": "https://images.pexels.com/photos/428340/pexels-photo-428340.jpeg",
                "large2x": "https://images.pexels.com/photos/428340/pexels-photo-428340.jpeg?auto=compress&cs=tinysrgb&dpr=2&h=650&w=940",
                "large": "https://images.pexels.com/photos/428340/pexels-photo-428340.jpeg?auto=compress&cs=tinysrgb&h=650&w=940",
                "medium": "https://images.pexels.com/photos/428340/pexels-photo-428340.jpeg?auto=compress&cs=tinysrgb&h=350",
                "small": "https://images.pexels.com/photos/428340/pexels-photo-428340.jpeg?auto=compress&cs=tinysrgb&h=130",
                "portrait": "https://images.pexels.com/photos/428340/pexels-photo-428340.jpeg?auto=compress&cs=tinysrgb&fit=crop&h=1200&w=800",
                "landscape": "https://images.pexels.com/photos/428340/pexels-photo-428340.jpeg?auto=compress&cs=tinysrgb&fit=crop&h=627&w=1200",
                "tiny": "https://images.pexels.com/photos/428340/pexels-photo-428340.jpeg?auto=compress&cs=tinysrgb&dpr=1&fit=crop&h=200&w=280"
            },
            "liked": false,
            "alt": "Men's White Shirt"
        },
        {
            "id": 2306791,
            "width": 5184,
            "height": 3456,
            "url": "https://www.pexels.com/photo/man-in-front-of-assorted-shirts-2306791/",
            "photographer": "Rosemary Ketchum",
            "photographer_url": "https://www.pexels.com/@ketchumcommunity",
            "photographer_id": 524080,
            "avg_color": "#9C7F98",
            "src": {
                "original": "https://images.pexels.com/photos/2306791/pexels-photo-2306791.jpeg",
                "large2x": "https://images.pexels.com/photos/2306791/pexels-photo-2306791.jpeg?auto=compress&cs=tinysrgb&dpr=2&h=650&w=940",
                "large": "https://images.pexels.com/photos/2306791/pexels-photo-2306791.jpeg?auto=compress&cs=tinysrgb&h=650&w=940",
                "medium": "https://images.pexels.com/photos/2306791/pexels-photo-2306791.jpeg?auto=compress&cs=tinysrgb&h=350",
                "small": "https://images.pexels.com/photos/2306791/pexels-photo-2306791.jpeg?auto=compress&cs=tinysrgb&h=130",
                "portrait": "https://images.pexels.com/photos/2306791/pexels-photo-2306791.jpeg?auto=compress&cs=tinysrgb&fit=crop&h=1200&w=800",
                "landscape": "https://images.pexels.com/photos/2306791/pexels-photo-2306791.jpeg?auto=compress&cs=tinysrgb&fit=crop&h=627&w=1200",
                "tiny": "https://images.pexels.com/photos/2306791/pexels-photo-2306791.jpeg?auto=compress&cs=tinysrgb&dpr=1&fit=crop&h=200&w=280"
            },
            "liked": false,
            "alt": "Man in Front of Assorted Shirts"
        },
        {
            "id": 2562500,
            "width": 3456,
            "height": 4788,
            "url": "https://www.pexels.com/photo/photo-of-two-women-in-leggings-and-t-shirts-posing-in-front-of-orange-background-2562500/",
            "photographer": "Boluwatife TheSalt",
            "photographer_url": "https://www.pexels.com/@boluwatife-thesalt-282981",
            "photographer_id": 282981,
            "avg_color": "#7E4D3A",
            "src": {
                "original": "https://images.pexels.com/photos/2562500/pexels-photo-2562500.jpeg",
                "large2x": "https://images.pexels.com/photos/2562500/pexels-photo-2562500.jpeg?auto=compress&cs=tinysrgb&dpr=2&h=650&w=940",
                "large": "https://images.pexels.com/photos/2562500/pexels-photo-2562500.jpeg?auto=compress&cs=tinysrgb&h=650&w=940",
                "medium": "https://images.pexels.com/photos/2562500/pexels-photo-2562500.jpeg?auto=compress&cs=tinysrgb&h=350",
                "small": "https://images.pexels.com/photos/2562500/pexels-photo-2562500.jpeg?auto=compress&cs=tinysrgb&h=130",
                "portrait": "https://images.pexels.com/photos/2562500/pexels-photo-2562500.jpeg?auto=compress&cs=tinysrgb&fit=crop&h=1200&w=800",
                "landscape": "https://images.pexels.com/photos/2562500/pexels-photo-2562500.jpeg?auto=compress&cs=tinysrgb&fit=crop&h=627&w=1200",
                "tiny": "https://images.pexels.com/photos/2562500/pexels-photo-2562500.jpeg?auto=compress&cs=tinysrgb&dpr=1&fit=crop&h=200&w=280"
            },
            "liked": false,
            "alt": "Photo of Two Women in Leggings and T-shirts Posing In Front of Orange Background"
        }
    ],
    "total_results": 8000,
    "next_page": "https://api.pexels.com/v1/search/?page=2&per_page=8&query=tshirts"
}